%YAML 1.1
%TAG !u! tag:unity3d.com,2011:
--- !u!1 &3589105296417546449
GameObject:
  m_ObjectHideFlags: 0
  m_CorrespondingSourceObject: {fileID: 0}
  m_PrefabInstance: {fileID: 0}
  m_PrefabAsset: {fileID: 0}
  serializedVersion: 6
  m_Component:
  - component: {fileID: 7861263454074152140}
  - component: {fileID: 7792334297784854977}
  - component: {fileID: 2192804378326303714}
  m_Layer: 0
  m_Name: ItemBase
  m_TagString: Item
  m_Icon: {fileID: 0}
  m_NavMeshLayer: 0
  m_StaticEditorFlags: 0
  m_IsActive: 1
--- !u!224 &7861263454074152140
RectTransform:
  m_ObjectHideFlags: 0
  m_CorrespondingSourceObject: {fileID: 0}
  m_PrefabInstance: {fileID: 0}
  m_PrefabAsset: {fileID: 0}
  m_GameObject: {fileID: 3589105296417546449}
  m_LocalRotation: {x: 0, y: 0, z: 0, w: 1}
  m_LocalPosition: {x: 0, y: 0, z: -240.91666}
  m_LocalScale: {x: 1, y: 1, z: 1}
  m_Children: []
  m_Father: {fileID: 0}
  m_RootOrder: 0
  m_LocalEulerAnglesHint: {x: 0, y: 0, z: 0}
  m_AnchorMin: {x: 0.5, y: 0}
  m_AnchorMax: {x: 0.5, y: 0}
  m_AnchoredPosition: {x: 376.0194, y: 222.09573}
  m_SizeDelta: {x: 100, y: 100}
  m_Pivot: {x: 0.5, y: 0.5}
--- !u!114 &7792334297784854977
MonoBehaviour:
  m_ObjectHideFlags: 0
  m_CorrespondingSourceObject: {fileID: 0}
  m_PrefabInstance: {fileID: 0}
  m_PrefabAsset: {fileID: 0}
  m_GameObject: {fileID: 3589105296417546449}
  m_Enabled: 1
  m_EditorHideFlags: 0
  m_Script: {fileID: 11500000, guid: f6da1aec17909034fa7d9ada9260de53, type: 3}
  m_Name: 
  m_EditorClassIdentifier: 
  shrunk: 1
  anchorPoint: {x: 0, y: 0}
  currentPosition: {x: 0, y: 0}
  dragPosition: {x: 0, y: 0}
  inventoryManager: {fileID: 0}
  inputOutputImage: {fileID: 909933490721369780, guid: d8fb54442b34c0547ac11bb975c78f56,
    type: 3}
  solidImage: {fileID: 190168682749642876, guid: 2b7ac42781971164f872a4a179da5f84,
    type: 3}
--- !u!225 &2192804378326303714
CanvasGroup:
  m_ObjectHideFlags: 0
  m_CorrespondingSourceObject: {fileID: 0}
  m_PrefabInstance: {fileID: 0}
  m_PrefabAsset: {fileID: 0}
  m_GameObject: {fileID: 3589105296417546449}
  m_Enabled: 1
  m_Alpha: 1
  m_Interactable: 1
  m_BlocksRaycasts: 1
  m_IgnoreParentGroups: 0
